…
variables <- c("air_temperature", "air_pressure")
#Other variable names can be found at https://projects.ecoforecast.org/neon4cast-docs/Shared-Forecast-Drivers.html#stage-3

noaa_past <- noaa_past_s3  |> 
  dplyr::filter(site_id %in% lake_sites$field_site_id,
                datetime >= ymd('2017-01-01'),
                variable %in% variables) |> 
  dplyr::collect()

noaa_past
```

    ## # A tibble: 12,905,858 × 7
    ##    parameter datetime            variable   prediction family reference_datetime
    ##        <dbl> <dttm>              <chr>           <dbl> <chr>  <lgl>             
    ##  1         0 2020-09-24 00:00:00 air_press…    101189. ensem… NA                
    ##  2         1 2020-09-24 00:00:00 air_press…    101145. ensem… NA                
    ##  3         2 2020-09-24 00:00:00 air_press…    101173. ensem… NA                
    ##  4         3 2020-09-24 00:00:00 air_press…    101206. ensem… NA                
    ##  5         4 2020-09-24 00:00:00 air_press…    101229. ensem… NA                
    ##  6         5 2020-09-24 00:00:00 air_press…    101209. ensem… NA                
    ##  7         6 2020-09-24 00:00:00 air_press…    101162. ensem… NA                
    ##  8         7 2020-09-24 00:00:00 air_press…    101206. ensem… NA                
    ##  9         8 2020-09-24 00:00:00 air_press…    101248. ensem… NA                
    ## 10         9 2020-09-24 00:00:00 air_press…    101239. ensem… NA                
    ## # ℹ 12,905,848 more rows
    ## # ℹ 1 more variable: site_id <chr>
…
    ## `summarise()` has grouped output by 'datetime', 'site_id', 'parameter'. You can
    ## override using the `.groups` argument.

``` r
noaa_future_daily
```

    ## # A tibble: 7,595 × 5
    ## # Groups:   datetime, site_id, parameter [7,595]
    ##    datetime   site_id air_temperature air_pressure parameter
    ##    <date>     <chr>             <dbl>        <dbl>     <dbl>
    ##  1 2024-02-15 BARC               15.1      101914.         0
    ##  2 2024-02-15 BARC               14.7      101850.         1
    ##  3 2024-02-15 BARC               15.2      101891.         2
    ##  4 2024-02-15 BARC               15.2      101849.         3
    ##  5 2024-02-15 BARC               15.2      101940.         4
    ##  6 2024-02-15 BARC               14.8      101963.         5
    ##  7 2024-02-15 BARC               15.2      101942.         6
    ##  8 2024-02-15 BARC               14.7      101836.         7
    ##  9 2024-02-15 BARC               15.4      101909.         8
    ## 10 2024-02-15 BARC               14.9      101899.         9
    ## # ℹ 7,585 more rows
…
